-- Merging decision tree log ---
manifest
ADDED from C:\Users\antonio.vidal\Desktop\woop\app\src\main\AndroidManifest.xml:2:1-27:12
INJECTED from C:\Users\antonio.vidal\Desktop\woop\app\src\main\AndroidManifest.xml:2:1-27:12
INJECTED from C:\Users\antonio.vidal\Desktop\woop\app\src\main\AndroidManifest.xml:2:1-27:12
INJECTED from C:\Users\antonio.vidal\Desktop\woop\app\src\main\AndroidManifest.xml:2:1-27:12
MERGED from [androidx.databinding:databinding-adapters:3.6.0-alpha03] C:\Users\antonio.vidal\.gradle\caches\transforms-2\files-2.1\b3059451b98e7dc4e74f20d8383a8279\databinding-adapters-3.6.0-alpha03\AndroidManifest.xml:17:1-24:12
MERGED from [androidx.databinding:databinding-runtime:3.6.0-alpha03] C:\Users\antonio.vidal\.gradle\caches\transforms-2\files-2.1\aced0c53213a2bb58dfc0b6c331c531d\databinding-runtime-3.6.0-alpha03\AndroidManifest.xml:17:1-24:12
MERGED from [com.google.android.material:material:1.1.0-alpha09] C:\Users\antonio.vidal\.gradle\caches\transforms-2\files-2.1\f9d8312c5a0f15939f8e376e3e3ee8bd\material-1.1.0-alpha09\AndroidManifest.xml:17:1-24:12
MERGED from [androidx.appcompat:appcompat:1.1.0-rc01] C:\Users\antonio.vidal\.gradle\caches\transforms-2\files-2.1\ad2c39cac47b10f1901cc0c40fde8e1a\appcompat-1.1.0-rc01\AndroidManifest.xml:17:1-24:12
MERGED from [androidx.core:core-ktx:1.0.2] C:\Users\antonio.vidal\.gradle\caches\transforms-2\files-2.1\e477a2ba983e4f052c62a8eaa557986b\core-ktx-1.0.2\AndroidManifest.xml:2:1-7:12
MERGED from [androidx.constraintlayout:constraintlayout:1.1.3] C:\Users\antonio.vidal\.gradle\caches\transforms-2\files-2.1\b800b01c725441d4d9c4674913e15a3f\constraintlayout-1.1.3\AndroidManifest.xml:2:1-11:12
MERGED from [androidx.lifecycle:lifecycle-extensions:2.0.0] C:\Users\antonio.vidal\.gradle\caches\transforms-2\files-2.1\cda0acc4e44ed931cd51536f67b4a989\lifecycle-extensions-2.0.0\AndroidManifest.xml:17:1-25:12
MERGED from [com.github.bumptech.glide:glide:4.6.1] C:\Users\antonio.vidal\.gradle\caches\transforms-2\files-2.1\2ae56e57978e97b428c9f252943f4d94\jetified-glide-4.6.1\AndroidManifest.xml:2:1-13:12
MERGED from [com.android.volley:volley:1.1.0] C:\Users\antonio.vidal\.gradle\caches\transforms-2\files-2.1\8c4902f8d39ca062ca3ff5b37fa7b3ff\volley-1.1.0\AndroidManifest.xml:2:1-11:12
MERGED from [androidx.databinding:viewbinding:3.6.0-alpha03] C:\Users\antonio.vidal\.gradle\caches\transforms-2\files-2.1\a6233c810d236db078060971d4c622be\viewbinding-3.6.0-alpha03\AndroidManifest.xml:17:1-22:12
MERGED from [androidx.lifecycle:lifecycle-process:2.0.0] C:\Users\antonio.vidal\.gradle\caches\transforms-2\files-2.1\68c8222928cb963f14425ddb93f0a856\lifecycle-process-2.0.0\AndroidManifest.xml:17:1-30:12
MERGED from [androidx.lifecycle:lifecycle-service:2.0.0] C:\Users\antonio.vidal\.gradle\caches\transforms-2\files-2.1\cf454a2840e0111f662b3fd983b71806\lifecycle-service-2.0.0\AndroidManifest.xml:17:1-22:12
MERGED from [androidx.coordinatorlayout:coordinatorlayout:1.1.0-beta01] C:\Users\antonio.vidal\.gradle\caches\transforms-2\files-2.1\05427aa0591e1b4d0bd7920e5d2fdb51\coordinatorlayout-1.1.0-beta01\AndroidManifest.xml:17:1-24:12
MERGED from [androidx.transition:transition:1.0.1] C:\Users\antonio.vidal\.gradle\caches\transforms-2\files-2.1\4c79e495e62eb83f96b6aa74d01ff5dd\transition-1.0.1\AndroidManifest.xml:17:1-22:12
MERGED from [androidx.appcompat:appcompat-resources:1.1.0-rc01] C:\Users\antonio.vidal\.gradle\caches\transforms-2\files-2.1\3a0888187948bceabacfcedd726d90a6\appcompat-resources-1.1.0-rc01\AndroidManifest.xml:17:1-24:12
MERGED from [androidx.vectordrawable:vectordrawable-animated:1.1.0-rc01] C:\Users\antonio.vidal\.gradle\caches\transforms-2\files-2.1\2d705b0ec5f743f4c5979afbed64377f\vectordrawable-animated-1.1.0-rc01\AndroidManifest.xml:17:1-24:12
MERGED from [androidx.vectordrawable:vectordrawable:1.1.0-rc01] C:\Users\antonio.vidal\.gradle\caches\transforms-2\files-2.1\5f3b831bf35f42c848ee9a18a329249c\vectordrawable-1.1.0-rc01\AndroidManifest.xml:17:1-24:12
MERGED from [androidx.viewpager2:viewpager2:1.0.0-beta02] C:\Users\antonio.vidal\.gradle\caches\transforms-2\files-2.1\43eb8c44c8639d4af6a05a911172d5c7\viewpager2-1.0.0-beta02\AndroidManifest.xml:17:1-24:12
MERGED from [androidx.fragment:fragment:1.1.0-rc01] C:\Users\antonio.vidal\.gradle\caches\transforms-2\files-2.1\e1d83ca67d87d091c26353aa231fd01b\fragment-1.1.0-rc01\AndroidManifest.xml:17:1-24:12
MERGED from [androidx.drawerlayout:drawerlayout:1.0.0] C:\Users\antonio.vidal\.gradle\caches\transforms-2\files-2.1\1c97977efc3d5536922db7c4c2d3dbfa\drawerlayout-1.0.0\AndroidManifest.xml:17:1-22:12
MERGED from [androidx.recyclerview:recyclerview:1.1.0-beta01] C:\Users\antonio.vidal\.gradle\caches\transforms-2\files-2.1\fcbf6f1fa1a7006899a438ce0f597aa8\recyclerview-1.1.0-beta01\AndroidManifest.xml:17:1-24:12
MERGED from [androidx.viewpager:viewpager:1.0.0] C:\Users\antonio.vidal\.gradle\caches\transforms-2\files-2.1\a90f9e539dd877ccd125cdee646e652e\viewpager-1.0.0\AndroidManifest.xml:17:1-22:12
MERGED from [androidx.customview:customview:1.0.0] C:\Users\antonio.vidal\.gradle\caches\transforms-2\files-2.1\dc7a640de23110856d6913099a78b7c9\customview-1.0.0\AndroidManifest.xml:17:1-22:12
MERGED from [androidx.loader:loader:1.0.0] C:\Users\antonio.vidal\.gradle\caches\transforms-2\files-2.1\dd71738cb562643af8129a7e2b02d733\loader-1.0.0\AndroidManifest.xml:17:1-22:12
MERGED from [androidx.activity:activity:1.0.0-rc01] C:\Users\antonio.vidal\.gradle\caches\transforms-2\files-2.1\5ebdf96806c0d5a11d3911e06e5b8d5e\activity-1.0.0-rc01\AndroidManifest.xml:17:1-24:12
MERGED from [androidx.core:core:1.1.0-rc02] C:\Users\antonio.vidal\.gradle\caches\transforms-2\files-2.1\defc68d7d4050ce3cf32b070be66df16\core-1.1.0-rc02\AndroidManifest.xml:17:1-26:12
MERGED from [androidx.lifecycle:lifecycle-runtime:2.1.0-rc01] C:\Users\antonio.vidal\.gradle\caches\transforms-2\files-2.1\2788688e2250fe274f284e1026dd3ab0\lifecycle-runtime-2.1.0-rc01\AndroidManifest.xml:17:1-22:12
MERGED from [androidx.versionedparcelable:versionedparcelable:1.1.0-rc01] C:\Users\antonio.vidal\.gradle\caches\transforms-2\files-2.1\4ca7ec495bf35286cedfe83b14c9b223\versionedparcelable-1.1.0-rc01\AndroidManifest.xml:17:1-27:12
MERGED from [androidx.lifecycle:lifecycle-livedata:2.0.0] C:\Users\antonio.vidal\.gradle\caches\transforms-2\files-2.1\e774ceed7cb17676be174caa80b7bf5c\lifecycle-livedata-2.0.0\AndroidManifest.xml:17:1-22:12
MERGED from [androidx.lifecycle:lifecycle-livedata-core:2.0.0] C:\Users\antonio.vidal\.gradle\caches\transforms-2\files-2.1\e30b45bbe0cd36dd214baab8df78ad7e\lifecycle-livedata-core-2.0.0\AndroidManifest.xml:17:1-22:12
MERGED from [androidx.arch.core:core-runtime:2.0.0] C:\Users\antonio.vidal\.gradle\caches\transforms-2\files-2.1\0ea33a95c25d62106756d2ee4afb24ff\core-runtime-2.0.0\AndroidManifest.xml:17:1-22:12
MERGED from [androidx.cardview:cardview:1.0.0] C:\Users\antonio.vidal\.gradle\caches\transforms-2\files-2.1\8f145e39fc96e155c0054468f46d86e4\cardview-1.0.0\AndroidManifest.xml:17:1-22:12
MERGED from [com.github.bumptech.glide:gifdecoder:4.6.1] C:\Users\antonio.vidal\.gradle\caches\transforms-2\files-2.1\0d775e41da3fa6eb990933d58018c6a8\jetified-gifdecoder-4.6.1\AndroidManifest.xml:2:1-11:12
MERGED from [androidx.cursoradapter:cursoradapter:1.0.0] C:\Users\antonio.vidal\.gradle\caches\transforms-2\files-2.1\7bf0d4c42701986b847558e04fc1f633\cursoradapter-1.0.0\AndroidManifest.xml:17:1-22:12
MERGED from [androidx.lifecycle:lifecycle-viewmodel:2.1.0-rc01] C:\Users\antonio.vidal\.gradle\caches\transforms-2\files-2.1\e0b69ea3aa64ac42081e416474210e9a\lifecycle-viewmodel-2.1.0-rc01\AndroidManifest.xml:17:1-22:12
MERGED from [androidx.savedstate:savedstate:1.0.0-rc01] C:\Users\antonio.vidal\.gradle\caches\transforms-2\files-2.1\f8011100b390283ff6b9b571543a1ce8\savedstate-1.0.0-rc01\AndroidManifest.xml:17:1-24:12
MERGED from [androidx.interpolator:interpolator:1.0.0] C:\Users\antonio.vidal\.gradle\caches\transforms-2\files-2.1\8381d0a86d45a9afd60ba34142102483\interpolator-1.0.0\AndroidManifest.xml:17:1-22:12
INJECTED from C:\Users\antonio.vidal\Desktop\woop\app\src\main\AndroidManifest.xml:2:1-27:12
INJECTED from C:\Users\antonio.vidal\Desktop\woop\app\src\main\AndroidManifest.xml:2:1-27:12
INJECTED from C:\Users\antonio.vidal\Desktop\woop\app\src\main\AndroidManifest.xml:2:1-27:12
	package
		ADDED from C:\Users\antonio.vidal\Desktop\woop\app\src\main\AndroidManifest.xml:3:11-46
		INJECTED from C:\Users\antonio.vidal\Desktop\woop\app\src\main\AndroidManifest.xml
		INJECTED from C:\Users\antonio.vidal\Desktop\woop\app\src\main\AndroidManifest.xml
	android:versionName
		INJECTED from C:\Users\antonio.vidal\Desktop\woop\app\src\main\AndroidManifest.xml
		ADDED from C:\Users\antonio.vidal\Desktop\woop\app\src\main\AndroidManifest.xml:2:1-27:12
		INJECTED from C:\Users\antonio.vidal\Desktop\woop\app\src\main\AndroidManifest.xml
	android:versionCode
		INJECTED from C:\Users\antonio.vidal\Desktop\woop\app\src\main\AndroidManifest.xml
		ADDED from C:\Users\antonio.vidal\Desktop\woop\app\src\main\AndroidManifest.xml:2:1-27:12
		INJECTED from C:\Users\antonio.vidal\Desktop\woop\app\src\main\AndroidManifest.xml
	xmlns:android
		ADDED from C:\Users\antonio.vidal\Desktop\woop\app\src\main\AndroidManifest.xml:2:11-69
uses-permission#android.permission.INTERNET
ADDED from C:\Users\antonio.vidal\Desktop\woop\app\src\main\AndroidManifest.xml:5:5-66
	android:name
		ADDED from C:\Users\antonio.vidal\Desktop\woop\app\src\main\AndroidManifest.xml:5:22-64
application
ADDED from C:\Users\antonio.vidal\Desktop\woop\app\src\main\AndroidManifest.xml:7:5-25:19
MERGED from [com.google.android.material:material:1.1.0-alpha09] C:\Users\antonio.vidal\.gradle\caches\transforms-2\files-2.1\f9d8312c5a0f15939f8e376e3e3ee8bd\material-1.1.0-alpha09\AndroidManifest.xml:22:5-20
MERGED from [com.google.android.material:material:1.1.0-alpha09] C:\Users\antonio.vidal\.gradle\caches\transforms-2\files-2.1\f9d8312c5a0f15939f8e376e3e3ee8bd\material-1.1.0-alpha09\AndroidManifest.xml:22:5-20
MERGED from [androidx.constraintlayout:constraintlayout:1.1.3] C:\Users\antonio.vidal\.gradle\caches\transforms-2\files-2.1\b800b01c725441d4d9c4674913e15a3f\constraintlayout-1.1.3\AndroidManifest.xml:9:5-20
MERGED from [androidx.constraintlayout:constraintlayout:1.1.3] C:\Users\antonio.vidal\.gradle\caches\transforms-2\files-2.1\b800b01c725441d4d9c4674913e15a3f\constraintlayout-1.1.3\AndroidManifest.xml:9:5-20
MERGED from [androidx.lifecycle:lifecycle-extensions:2.0.0] C:\Users\antonio.vidal\.gradle\caches\transforms-2\files-2.1\cda0acc4e44ed931cd51536f67b4a989\lifecycle-extensions-2.0.0\AndroidManifest.xml:22:5-23:19
MERGED from [androidx.lifecycle:lifecycle-extensions:2.0.0] C:\Users\antonio.vidal\.gradle\caches\transforms-2\files-2.1\cda0acc4e44ed931cd51536f67b4a989\lifecycle-extensions-2.0.0\AndroidManifest.xml:22:5-23:19
MERGED from [com.github.bumptech.glide:glide:4.6.1] C:\Users\antonio.vidal\.gradle\caches\transforms-2\files-2.1\2ae56e57978e97b428c9f252943f4d94\jetified-glide-4.6.1\AndroidManifest.xml:11:5-20
MERGED from [com.github.bumptech.glide:glide:4.6.1] C:\Users\antonio.vidal\.gradle\caches\transforms-2\files-2.1\2ae56e57978e97b428c9f252943f4d94\jetified-glide-4.6.1\AndroidManifest.xml:11:5-20
MERGED from [com.android.volley:volley:1.1.0] C:\Users\antonio.vidal\.gradle\caches\transforms-2\files-2.1\8c4902f8d39ca062ca3ff5b37fa7b3ff\volley-1.1.0\AndroidManifest.xml:9:5-20
MERGED from [com.android.volley:volley:1.1.0] C:\Users\antonio.vidal\.gradle\caches\transforms-2\files-2.1\8c4902f8d39ca062ca3ff5b37fa7b3ff\volley-1.1.0\AndroidManifest.xml:9:5-20
MERGED from [androidx.lifecycle:lifecycle-process:2.0.0] C:\Users\antonio.vidal\.gradle\caches\transforms-2\files-2.1\68c8222928cb963f14425ddb93f0a856\lifecycle-process-2.0.0\AndroidManifest.xml:22:5-28:19
MERGED from [androidx.lifecycle:lifecycle-process:2.0.0] C:\Users\antonio.vidal\.gradle\caches\transforms-2\files-2.1\68c8222928cb963f14425ddb93f0a856\lifecycle-process-2.0.0\AndroidManifest.xml:22:5-28:19
MERGED from [androidx.core:core:1.1.0-rc02] C:\Users\antonio.vidal\.gradle\caches\transforms-2\files-2.1\defc68d7d4050ce3cf32b070be66df16\core-1.1.0-rc02\AndroidManifest.xml:24:5-89
MERGED from [androidx.core:core:1.1.0-rc02] C:\Users\antonio.vidal\.gradle\caches\transforms-2\files-2.1\defc68d7d4050ce3cf32b070be66df16\core-1.1.0-rc02\AndroidManifest.xml:24:5-89
MERGED from [androidx.versionedparcelable:versionedparcelable:1.1.0-rc01] C:\Users\antonio.vidal\.gradle\caches\transforms-2\files-2.1\4ca7ec495bf35286cedfe83b14c9b223\versionedparcelable-1.1.0-rc01\AndroidManifest.xml:24:5-25:19
MERGED from [androidx.versionedparcelable:versionedparcelable:1.1.0-rc01] C:\Users\antonio.vidal\.gradle\caches\transforms-2\files-2.1\4ca7ec495bf35286cedfe83b14c9b223\versionedparcelable-1.1.0-rc01\AndroidManifest.xml:24:5-25:19
MERGED from [com.github.bumptech.glide:gifdecoder:4.6.1] C:\Users\antonio.vidal\.gradle\caches\transforms-2\files-2.1\0d775e41da3fa6eb990933d58018c6a8\jetified-gifdecoder-4.6.1\AndroidManifest.xml:9:5-20
MERGED from [com.github.bumptech.glide:gifdecoder:4.6.1] C:\Users\antonio.vidal\.gradle\caches\transforms-2\files-2.1\0d775e41da3fa6eb990933d58018c6a8\jetified-gifdecoder-4.6.1\AndroidManifest.xml:9:5-20
	android:appComponentFactory
		ADDED from [androidx.core:core:1.1.0-rc02] C:\Users\antonio.vidal\.gradle\caches\transforms-2\files-2.1\defc68d7d4050ce3cf32b070be66df16\core-1.1.0-rc02\AndroidManifest.xml:24:18-86
	android:supportsRtl
		ADDED from C:\Users\antonio.vidal\Desktop\woop\app\src\main\AndroidManifest.xml:12:13-39
	android:label
		ADDED from C:\Users\antonio.vidal\Desktop\woop\app\src\main\AndroidManifest.xml:10:13-45
	android:roundIcon
		ADDED from C:\Users\antonio.vidal\Desktop\woop\app\src\main\AndroidManifest.xml:11:13-58
	android:icon
		ADDED from C:\Users\antonio.vidal\Desktop\woop\app\src\main\AndroidManifest.xml:9:13-47
	android:allowBackup
		ADDED from C:\Users\antonio.vidal\Desktop\woop\app\src\main\AndroidManifest.xml:8:13-39
	android:theme
		ADDED from C:\Users\antonio.vidal\Desktop\woop\app\src\main\AndroidManifest.xml:13:13-44
activity#com.example.myapplication.CheckInActivity
ADDED from C:\Users\antonio.vidal\Desktop\woop\app\src\main\AndroidManifest.xml:14:9-15:20
	android:name
		ADDED from C:\Users\antonio.vidal\Desktop\woop\app\src\main\AndroidManifest.xml:14:19-50
activity#com.example.myapplication.EventDetailsActivity
ADDED from C:\Users\antonio.vidal\Desktop\woop\app\src\main\AndroidManifest.xml:16:9-17:20
	android:name
		ADDED from C:\Users\antonio.vidal\Desktop\woop\app\src\main\AndroidManifest.xml:16:19-55
activity#com.example.myapplication.EventsActivity
ADDED from C:\Users\antonio.vidal\Desktop\woop\app\src\main\AndroidManifest.xml:18:9-24:20
	android:name
		ADDED from C:\Users\antonio.vidal\Desktop\woop\app\src\main\AndroidManifest.xml:18:19-49
intent-filter#action:name:android.intent.action.MAIN+category:name:android.intent.category.LAUNCHER
ADDED from C:\Users\antonio.vidal\Desktop\woop\app\src\main\AndroidManifest.xml:19:13-23:29
action#android.intent.action.MAIN
ADDED from C:\Users\antonio.vidal\Desktop\woop\app\src\main\AndroidManifest.xml:20:17-68
	android:name
		ADDED from C:\Users\antonio.vidal\Desktop\woop\app\src\main\AndroidManifest.xml:20:25-66
category#android.intent.category.LAUNCHER
ADDED from C:\Users\antonio.vidal\Desktop\woop\app\src\main\AndroidManifest.xml:22:17-76
	android:name
		ADDED from C:\Users\antonio.vidal\Desktop\woop\app\src\main\AndroidManifest.xml:22:27-74
uses-sdk
INJECTED from C:\Users\antonio.vidal\Desktop\woop\app\src\main\AndroidManifest.xml reason: use-sdk injection requested
INJECTED from C:\Users\antonio.vidal\Desktop\woop\app\src\main\AndroidManifest.xml
INJECTED from C:\Users\antonio.vidal\Desktop\woop\app\src\main\AndroidManifest.xml
MERGED from [androidx.databinding:databinding-adapters:3.6.0-alpha03] C:\Users\antonio.vidal\.gradle\caches\transforms-2\files-2.1\b3059451b98e7dc4e74f20d8383a8279\databinding-adapters-3.6.0-alpha03\AndroidManifest.xml:22:5-44
MERGED from [androidx.databinding:databinding-adapters:3.6.0-alpha03] C:\Users\antonio.vidal\.gradle\caches\transforms-2\files-2.1\b3059451b98e7dc4e74f20d8383a8279\databinding-adapters-3.6.0-alpha03\AndroidManifest.xml:22:5-44
MERGED from [androidx.databinding:databinding-runtime:3.6.0-alpha03] C:\Users\antonio.vidal\.gradle\caches\transforms-2\files-2.1\aced0c53213a2bb58dfc0b6c331c531d\databinding-runtime-3.6.0-alpha03\AndroidManifest.xml:22:5-44
MERGED from [androidx.databinding:databinding-runtime:3.6.0-alpha03] C:\Users\antonio.vidal\.gradle\caches\transforms-2\files-2.1\aced0c53213a2bb58dfc0b6c331c531d\databinding-runtime-3.6.0-alpha03\AndroidManifest.xml:22:5-44
MERGED from [com.google.android.material:material:1.1.0-alpha09] C:\Users\antonio.vidal\.gradle\caches\transforms-2\files-2.1\f9d8312c5a0f15939f8e376e3e3ee8bd\material-1.1.0-alpha09\AndroidManifest.xml:20:5-44
MERGED from [com.google.android.material:material:1.1.0-alpha09] C:\Users\antonio.vidal\.gradle\caches\transforms-2\files-2.1\f9d8312c5a0f15939f8e376e3e3ee8bd\material-1.1.0-alpha09\AndroidManifest.xml:20:5-44
MERGED from [androidx.appcompat:appcompat:1.1.0-rc01] C:\Users\antonio.vidal\.gradle\caches\transforms-2\files-2.1\ad2c39cac47b10f1901cc0c40fde8e1a\appcompat-1.1.0-rc01\AndroidManifest.xml:20:5-22:41
MERGED from [androidx.appcompat:appcompat:1.1.0-rc01] C:\Users\antonio.vidal\.gradle\caches\transforms-2\files-2.1\ad2c39cac47b10f1901cc0c40fde8e1a\appcompat-1.1.0-rc01\AndroidManifest.xml:20:5-22:41
MERGED from [androidx.core:core-ktx:1.0.2] C:\Users\antonio.vidal\.gradle\caches\transforms-2\files-2.1\e477a2ba983e4f052c62a8eaa557986b\core-ktx-1.0.2\AndroidManifest.xml:5:5-44
MERGED from [androidx.core:core-ktx:1.0.2] C:\Users\antonio.vidal\.gradle\caches\transforms-2\files-2.1\e477a2ba983e4f052c62a8eaa557986b\core-ktx-1.0.2\AndroidManifest.xml:5:5-44
MERGED from [androidx.constraintlayout:constraintlayout:1.1.3] C:\Users\antonio.vidal\.gradle\caches\transforms-2\files-2.1\b800b01c725441d4d9c4674913e15a3f\constraintlayout-1.1.3\AndroidManifest.xml:5:5-7:41
MERGED from [androidx.constraintlayout:constraintlayout:1.1.3] C:\Users\antonio.vidal\.gradle\caches\transforms-2\files-2.1\b800b01c725441d4d9c4674913e15a3f\constraintlayout-1.1.3\AndroidManifest.xml:5:5-7:41
MERGED from [androidx.lifecycle:lifecycle-extensions:2.0.0] C:\Users\antonio.vidal\.gradle\caches\transforms-2\files-2.1\cda0acc4e44ed931cd51536f67b4a989\lifecycle-extensions-2.0.0\AndroidManifest.xml:20:5-44
MERGED from [androidx.lifecycle:lifecycle-extensions:2.0.0] C:\Users\antonio.vidal\.gradle\caches\transforms-2\files-2.1\cda0acc4e44ed931cd51536f67b4a989\lifecycle-extensions-2.0.0\AndroidManifest.xml:20:5-44
MERGED from [com.github.bumptech.glide:glide:4.6.1] C:\Users\antonio.vidal\.gradle\caches\transforms-2\files-2.1\2ae56e57978e97b428c9f252943f4d94\jetified-glide-4.6.1\AndroidManifest.xml:7:5-9:41
MERGED from [com.github.bumptech.glide:glide:4.6.1] C:\Users\antonio.vidal\.gradle\caches\transforms-2\files-2.1\2ae56e57978e97b428c9f252943f4d94\jetified-glide-4.6.1\AndroidManifest.xml:7:5-9:41
MERGED from [com.android.volley:volley:1.1.0] C:\Users\antonio.vidal\.gradle\caches\transforms-2\files-2.1\8c4902f8d39ca062ca3ff5b37fa7b3ff\volley-1.1.0\AndroidManifest.xml:7:5-43
MERGED from [com.android.volley:volley:1.1.0] C:\Users\antonio.vidal\.gradle\caches\transforms-2\files-2.1\8c4902f8d39ca062ca3ff5b37fa7b3ff\volley-1.1.0\AndroidManifest.xml:7:5-43
MERGED from [androidx.databinding:viewbinding:3.6.0-alpha03] C:\Users\antonio.vidal\.gradle\caches\transforms-2\files-2.1\a6233c810d236db078060971d4c622be\viewbinding-3.6.0-alpha03\AndroidManifest.xml:20:5-44
MERGED from [androidx.databinding:viewbinding:3.6.0-alpha03] C:\Users\antonio.vidal\.gradle\caches\transforms-2\files-2.1\a6233c810d236db078060971d4c622be\viewbinding-3.6.0-alpha03\AndroidManifest.xml:20:5-44
MERGED from [androidx.lifecycle:lifecycle-process:2.0.0] C:\Users\antonio.vidal\.gradle\caches\transforms-2\files-2.1\68c8222928cb963f14425ddb93f0a856\lifecycle-process-2.0.0\AndroidManifest.xml:20:5-44
MERGED from [androidx.lifecycle:lifecycle-process:2.0.0] C:\Users\antonio.vidal\.gradle\caches\transforms-2\files-2.1\68c8222928cb963f14425ddb93f0a856\lifecycle-process-2.0.0\AndroidManifest.xml:20:5-44
MERGED from [androidx.lifecycle:lifecycle-service:2.0.0] C:\Users\antonio.vidal\.gradle\caches\transforms-2\files-2.1\cf454a2840e0111f662b3fd983b71806\lifecycle-service-2.0.0\AndroidManifest.xml:20:5-44
MERGED from [androidx.lifecycle:lifecycle-service:2.0.0] C:\Users\antonio.vidal\.gradle\caches\transforms-2\files-2.1\cf454a2840e0111f662b3fd983b71806\lifecycle-service-2.0.0\AndroidManifest.xml:20:5-44
MERGED from [androidx.coordinatorlayout:coordinatorlayout:1.1.0-beta01] C:\Users\antonio.vidal\.gradle\caches\transforms-2\files-2.1\05427aa0591e1b4d0bd7920e5d2fdb51\coordinatorlayout-1.1.0-beta01\AndroidManifest.xml:20:5-22:41
MERGED from [androidx.coordinatorlayout:coordinatorlayout:1.1.0-beta01] C:\Users\antonio.vidal\.gradle\caches\transforms-2\files-2.1\05427aa0591e1b4d0bd7920e5d2fdb51\coordinatorlayout-1.1.0-beta01\AndroidManifest.xml:20:5-22:41
MERGED from [androidx.transition:transition:1.0.1] C:\Users\antonio.vidal\.gradle\caches\transforms-2\files-2.1\4c79e495e62eb83f96b6aa74d01ff5dd\transition-1.0.1\AndroidManifest.xml:20:5-44
MERGED from [androidx.transition:transition:1.0.1] C:\Users\antonio.vidal\.gradle\caches\transforms-2\files-2.1\4c79e495e62eb83f96b6aa74d01ff5dd\transition-1.0.1\AndroidManifest.xml:20:5-44
MERGED from [androidx.appcompat:appcompat-resources:1.1.0-rc01] C:\Users\antonio.vidal\.gradle\caches\transforms-2\files-2.1\3a0888187948bceabacfcedd726d90a6\appcompat-resources-1.1.0-rc01\AndroidManifest.xml:20:5-22:41
MERGED from [androidx.appcompat:appcompat-resources:1.1.0-rc01] C:\Users\antonio.vidal\.gradle\caches\transforms-2\files-2.1\3a0888187948bceabacfcedd726d90a6\appcompat-resources-1.1.0-rc01\AndroidManifest.xml:20:5-22:41
MERGED from [androidx.vectordrawable:vectordrawable-animated:1.1.0-rc01] C:\Users\antonio.vidal\.gradle\caches\transforms-2\files-2.1\2d705b0ec5f743f4c5979afbed64377f\vectordrawable-animated-1.1.0-rc01\AndroidManifest.xml:20:5-22:41
MERGED from [androidx.vectordrawable:vectordrawable-animated:1.1.0-rc01] C:\Users\antonio.vidal\.gradle\caches\transforms-2\files-2.1\2d705b0ec5f743f4c5979afbed64377f\vectordrawable-animated-1.1.0-rc01\AndroidManifest.xml:20:5-22:41
MERGED from [androidx.vectordrawable:vectordrawable:1.1.0-rc01] C:\Users\antonio.vidal\.gradle\caches\transforms-2\files-2.1\5f3b831bf35f42c848ee9a18a329249c\vectordrawable-1.1.0-rc01\AndroidManifest.xml:20:5-22:41
MERGED from [androidx.vectordrawable:vectordrawable:1.1.0-rc01] C:\Users\antonio.vidal\.gradle\caches\transforms-2\files-2.1\5f3b831bf35f42c848ee9a18a329249c\vectordrawable-1.1.0-rc01\AndroidManifest.xml:20:5-22:41
MERGED from [androidx.viewpager2:viewpager2:1.0.0-beta02] C:\Users\antonio.vidal\.gradle\caches\transforms-2\files-2.1\43eb8c44c8639d4af6a05a911172d5c7\viewpager2-1.0.0-beta02\AndroidManifest.xml:20:5-22:41
MERGED from [androidx.viewpager2:viewpager2:1.0.0-beta02] C:\Users\antonio.vidal\.gradle\caches\transforms-2\files-2.1\43eb8c44c8639d4af6a05a911172d5c7\viewpager2-1.0.0-beta02\AndroidManifest.xml:20:5-22:41
MERGED from [androidx.fragment:fragment:1.1.0-rc01] C:\Users\antonio.vidal\.gradle\caches\transforms-2\files-2.1\e1d83ca67d87d091c26353aa231fd01b\fragment-1.1.0-rc01\AndroidManifest.xml:20:5-22:41
MERGED from [androidx.fragment:fragment:1.1.0-rc01] C:\Users\antonio.vidal\.gradle\caches\transforms-2\files-2.1\e1d83ca67d87d091c26353aa231fd01b\fragment-1.1.0-rc01\AndroidManifest.xml:20:5-22:41
MERGED from [androidx.drawerlayout:drawerlayout:1.0.0] C:\Users\antonio.vidal\.gradle\caches\transforms-2\files-2.1\1c97977efc3d5536922db7c4c2d3dbfa\drawerlayout-1.0.0\AndroidManifest.xml:20:5-44
MERGED from [androidx.drawerlayout:drawerlayout:1.0.0] C:\Users\antonio.vidal\.gradle\caches\transforms-2\files-2.1\1c97977efc3d5536922db7c4c2d3dbfa\drawerlayout-1.0.0\AndroidManifest.xml:20:5-44
MERGED from [androidx.recyclerview:recyclerview:1.1.0-beta01] C:\Users\antonio.vidal\.gradle\caches\transforms-2\files-2.1\fcbf6f1fa1a7006899a438ce0f597aa8\recyclerview-1.1.0-beta01\AndroidManifest.xml:20:5-22:41
MERGED from [androidx.recyclerview:recyclerview:1.1.0-beta01] C:\Users\antonio.vidal\.gradle\caches\transforms-2\files-2.1\fcbf6f1fa1a7006899a438ce0f597aa8\recyclerview-1.1.0-beta01\AndroidManifest.xml:20:5-22:41
MERGED from [androidx.viewpager:viewpager:1.0.0] C:\Users\antonio.vidal\.gradle\caches\transforms-2\files-2.1\a90f9e539dd877ccd125cdee646e652e\viewpager-1.0.0\AndroidManifest.xml:20:5-44
MERGED from [androidx.viewpager:viewpager:1.0.0] C:\Users\antonio.vidal\.gradle\caches\transforms-2\files-2.1\a90f9e539dd877ccd125cdee646e652e\viewpager-1.0.0\AndroidManifest.xml:20:5-44
MERGED from [androidx.customview:customview:1.0.0] C:\Users\antonio.vidal\.gradle\caches\transforms-2\files-2.1\dc7a640de23110856d6913099a78b7c9\customview-1.0.0\AndroidManifest.xml:20:5-44
MERGED from [androidx.customview:customview:1.0.0] C:\Users\antonio.vidal\.gradle\caches\transforms-2\files-2.1\dc7a640de23110856d6913099a78b7c9\customview-1.0.0\AndroidManifest.xml:20:5-44
MERGED from [androidx.loader:loader:1.0.0] C:\Users\antonio.vidal\.gradle\caches\transforms-2\files-2.1\dd71738cb562643af8129a7e2b02d733\loader-1.0.0\AndroidManifest.xml:20:5-44
MERGED from [androidx.loader:loader:1.0.0] C:\Users\antonio.vidal\.gradle\caches\transforms-2\files-2.1\dd71738cb562643af8129a7e2b02d733\loader-1.0.0\AndroidManifest.xml:20:5-44
MERGED from [androidx.activity:activity:1.0.0-rc01] C:\Users\antonio.vidal\.gradle\caches\transforms-2\files-2.1\5ebdf96806c0d5a11d3911e06e5b8d5e\activity-1.0.0-rc01\AndroidManifest.xml:20:5-22:41
MERGED from [androidx.activity:activity:1.0.0-rc01] C:\Users\antonio.vidal\.gradle\caches\transforms-2\files-2.1\5ebdf96806c0d5a11d3911e06e5b8d5e\activity-1.0.0-rc01\AndroidManifest.xml:20:5-22:41
MERGED from [androidx.core:core:1.1.0-rc02] C:\Users\antonio.vidal\.gradle\caches\transforms-2\files-2.1\defc68d7d4050ce3cf32b070be66df16\core-1.1.0-rc02\AndroidManifest.xml:20:5-22:41
MERGED from [androidx.core:core:1.1.0-rc02] C:\Users\antonio.vidal\.gradle\caches\transforms-2\files-2.1\defc68d7d4050ce3cf32b070be66df16\core-1.1.0-rc02\AndroidManifest.xml:20:5-22:41
MERGED from [androidx.lifecycle:lifecycle-runtime:2.1.0-rc01] C:\Users\antonio.vidal\.gradle\caches\transforms-2\files-2.1\2788688e2250fe274f284e1026dd3ab0\lifecycle-runtime-2.1.0-rc01\AndroidManifest.xml:20:5-44
MERGED from [androidx.lifecycle:lifecycle-runtime:2.1.0-rc01] C:\Users\antonio.vidal\.gradle\caches\transforms-2\files-2.1\2788688e2250fe274f284e1026dd3ab0\lifecycle-runtime-2.1.0-rc01\AndroidManifest.xml:20:5-44
MERGED from [androidx.versionedparcelable:versionedparcelable:1.1.0-rc01] C:\Users\antonio.vidal\.gradle\caches\transforms-2\files-2.1\4ca7ec495bf35286cedfe83b14c9b223\versionedparcelable-1.1.0-rc01\AndroidManifest.xml:20:5-22:41
MERGED from [androidx.versionedparcelable:versionedparcelable:1.1.0-rc01] C:\Users\antonio.vidal\.gradle\caches\transforms-2\files-2.1\4ca7ec495bf35286cedfe83b14c9b223\versionedparcelable-1.1.0-rc01\AndroidManifest.xml:20:5-22:41
MERGED from [androidx.lifecycle:lifecycle-livedata:2.0.0] C:\Users\antonio.vidal\.gradle\caches\transforms-2\files-2.1\e774ceed7cb17676be174caa80b7bf5c\lifecycle-livedata-2.0.0\AndroidManifest.xml:20:5-44
MERGED from [androidx.lifecycle:lifecycle-livedata:2.0.0] C:\Users\antonio.vidal\.gradle\caches\transforms-2\files-2.1\e774ceed7cb17676be174caa80b7bf5c\lifecycle-livedata-2.0.0\AndroidManifest.xml:20:5-44
MERGED from [androidx.lifecycle:lifecycle-livedata-core:2.0.0] C:\Users\antonio.vidal\.gradle\caches\transforms-2\files-2.1\e30b45bbe0cd36dd214baab8df78ad7e\lifecycle-livedata-core-2.0.0\AndroidManifest.xml:20:5-44
MERGED from [androidx.lifecycle:lifecycle-livedata-core:2.0.0] C:\Users\antonio.vidal\.gradle\caches\transforms-2\files-2.1\e30b45bbe0cd36dd214baab8df78ad7e\lifecycle-livedata-core-2.0.0\AndroidManifest.xml:20:5-44
MERGED from [androidx.arch.core:core-runtime:2.0.0] C:\Users\antonio.vidal\.gradle\caches\transforms-2\files-2.1\0ea33a95c25d62106756d2ee4afb24ff\core-runtime-2.0.0\AndroidManifest.xml:20:5-44
MERGED from [androidx.arch.core:core-runtime:2.0.0] C:\Users\antonio.vidal\.gradle\caches\transforms-2\files-2.1\0ea33a95c25d62106756d2ee4afb24ff\core-runtime-2.0.0\AndroidManifest.xml:20:5-44
MERGED from [androidx.cardview:cardview:1.0.0] C:\Users\antonio.vidal\.gradle\caches\transforms-2\files-2.1\8f145e39fc96e155c0054468f46d86e4\cardview-1.0.0\AndroidManifest.xml:20:5-44
MERGED from [androidx.cardview:cardview:1.0.0] C:\Users\antonio.vidal\.gradle\caches\transforms-2\files-2.1\8f145e39fc96e155c0054468f46d86e4\cardview-1.0.0\AndroidManifest.xml:20:5-44
MERGED from [com.github.bumptech.glide:gifdecoder:4.6.1] C:\Users\antonio.vidal\.gradle\caches\transforms-2\files-2.1\0d775e41da3fa6eb990933d58018c6a8\jetified-gifdecoder-4.6.1\AndroidManifest.xml:5:5-7:41
MERGED from [com.github.bumptech.glide:gifdecoder:4.6.1] C:\Users\antonio.vidal\.gradle\caches\transforms-2\files-2.1\0d775e41da3fa6eb990933d58018c6a8\jetified-gifdecoder-4.6.1\AndroidManifest.xml:5:5-7:41
MERGED from [androidx.cursoradapter:cursoradapter:1.0.0] C:\Users\antonio.vidal\.gradle\caches\transforms-2\files-2.1\7bf0d4c42701986b847558e04fc1f633\cursoradapter-1.0.0\AndroidManifest.xml:20:5-44
MERGED from [androidx.cursoradapter:cursoradapter:1.0.0] C:\Users\antonio.vidal\.gradle\caches\transforms-2\files-2.1\7bf0d4c42701986b847558e04fc1f633\cursoradapter-1.0.0\AndroidManifest.xml:20:5-44
MERGED from [androidx.lifecycle:lifecycle-viewmodel:2.1.0-rc01] C:\Users\antonio.vidal\.gradle\caches\transforms-2\files-2.1\e0b69ea3aa64ac42081e416474210e9a\lifecycle-viewmodel-2.1.0-rc01\AndroidManifest.xml:20:5-44
MERGED from [androidx.lifecycle:lifecycle-viewmodel:2.1.0-rc01] C:\Users\antonio.vidal\.gradle\caches\transforms-2\files-2.1\e0b69ea3aa64ac42081e416474210e9a\lifecycle-viewmodel-2.1.0-rc01\AndroidManifest.xml:20:5-44
MERGED from [androidx.savedstate:savedstate:1.0.0-rc01] C:\Users\antonio.vidal\.gradle\caches\transforms-2\files-2.1\f8011100b390283ff6b9b571543a1ce8\savedstate-1.0.0-rc01\AndroidManifest.xml:20:5-22:41
MERGED from [androidx.savedstate:savedstate:1.0.0-rc01] C:\Users\antonio.vidal\.gradle\caches\transforms-2\files-2.1\f8011100b390283ff6b9b571543a1ce8\savedstate-1.0.0-rc01\AndroidManifest.xml:20:5-22:41
MERGED from [androidx.interpolator:interpolator:1.0.0] C:\Users\antonio.vidal\.gradle\caches\transforms-2\files-2.1\8381d0a86d45a9afd60ba34142102483\interpolator-1.0.0\AndroidManifest.xml:20:5-44
MERGED from [androidx.interpolator:interpolator:1.0.0] C:\Users\antonio.vidal\.gradle\caches\transforms-2\files-2.1\8381d0a86d45a9afd60ba34142102483\interpolator-1.0.0\AndroidManifest.xml:20:5-44
INJECTED from C:\Users\antonio.vidal\Desktop\woop\app\src\main\AndroidManifest.xml
INJECTED from C:\Users\antonio.vidal\Desktop\woop\app\src\main\AndroidManifest.xml
	android:targetSdkVersion
		INJECTED from C:\Users\antonio.vidal\Desktop\woop\app\src\main\AndroidManifest.xml
		ADDED from C:\Users\antonio.vidal\Desktop\woop\app\src\main\AndroidManifest.xml
		INJECTED from C:\Users\antonio.vidal\Desktop\woop\app\src\main\AndroidManifest.xml
	android:minSdkVersion
		INJECTED from C:\Users\antonio.vidal\Desktop\woop\app\src\main\AndroidManifest.xml
		ADDED from C:\Users\antonio.vidal\Desktop\woop\app\src\main\AndroidManifest.xml
		INJECTED from C:\Users\antonio.vidal\Desktop\woop\app\src\main\AndroidManifest.xml
provider#androidx.lifecycle.ProcessLifecycleOwnerInitializer
ADDED from [androidx.lifecycle:lifecycle-process:2.0.0] C:\Users\antonio.vidal\.gradle\caches\transforms-2\files-2.1\68c8222928cb963f14425ddb93f0a856\lifecycle-process-2.0.0\AndroidManifest.xml:23:9-27:43
	android:authorities
		ADDED from [androidx.lifecycle:lifecycle-process:2.0.0] C:\Users\antonio.vidal\.gradle\caches\transforms-2\files-2.1\68c8222928cb963f14425ddb93f0a856\lifecycle-process-2.0.0\AndroidManifest.xml:25:13-69
	android:multiprocess
		ADDED from [androidx.lifecycle:lifecycle-process:2.0.0] C:\Users\antonio.vidal\.gradle\caches\transforms-2\files-2.1\68c8222928cb963f14425ddb93f0a856\lifecycle-process-2.0.0\AndroidManifest.xml:27:13-40
	android:exported
		ADDED from [androidx.lifecycle:lifecycle-process:2.0.0] C:\Users\antonio.vidal\.gradle\caches\transforms-2\files-2.1\68c8222928cb963f14425ddb93f0a856\lifecycle-process-2.0.0\AndroidManifest.xml:26:13-37
	android:name
		ADDED from [androidx.lifecycle:lifecycle-process:2.0.0] C:\Users\antonio.vidal\.gradle\caches\transforms-2\files-2.1\68c8222928cb963f14425ddb93f0a856\lifecycle-process-2.0.0\AndroidManifest.xml:24:13-79
